{
  "states": [{
      "id": "2d96070d.8a4531",
      "type": "state",
      "label": "inlum_low-consum_low",
      "loopback": true,
      "sensors": [{
          "name": "power_consumption",
          "constraint": "poss",
          "parameters": {
            "mean": 0,
            "sd": 0,
            "constraint": "rampdown",
            "mode": "25",
            "max": "30"
          },
          "id": "d4da0a6c.01076a"
        }
      ]
    }, {
      "id": "28ce4dc3.2b0d20",
      "type": "state",
      "label": "inlum_high-outlum_low-consum_high",
      "loopback": true,
      "sensors": [{
          "name": "power_consumption",
          "constraint": "poss",
          "parameters": {
            "mean": 0,
            "sd": 0,
            "constraint": "rampup",
            "min": "80",
            "mode": "100"
          },
          "id": "d4da0a6c.01076a"
        }
      ]
    }, {
      "id": "9d446701.eb74c5",
      "type": "state",
      "label": "inlum_high-outlum_high-consum_low",
      "loopback": true,
      "sensors": [{
          "name": "power_consumption",
          "constraint": "poss",
          "parameters": {
            "mean": 0,
            "sd": 0,
            "constraint": "rampdown",
            "mode": "25",
            "max": "30"
          },
          "id": "d4da0a6c.01076a"
        }
      ]
    }
  ],
  "transitions": [{
      "id": "lb_2d96070d.8a4531",
      "type": "transition",
      "source": "2d96070d.8a4531",
      "target": "2d96070d.8a4531",
      "input": null,
      "output": null,
      "sensors": [{
          "name": "indoor_lum",
          "constraint": "poss",
          "parameters": {
            "mean": 0,
            "sd": 0,
            "constraint": "rampdown",
            "mode": "300",
            "max": "500"
          },
          "id": "805a7e49.a9c2ee"
        }
      ],
      "label": "inlum_down"
    }, {
      "id": "lb_28ce4dc3.2b0d20",
      "type": "transition",
      "source": "28ce4dc3.2b0d20",
      "target": "28ce4dc3.2b0d20",
      "input": null,
      "output": null,
      "sensors": [{
          "name": "indoor_lum",
          "constraint": "poss",
          "parameters": {
            "mean": 0,
            "sd": 0,
            "constraint": "rampup",
            "min": "650",
            "mode": "700"
          },
          "id": "805a7e49.a9c2ee"
        }, {
          "name": "outdoor_lum",
          "constraint": "poss",
          "parameters": {
            "mean": 0,
            "sd": 0,
            "constraint": "rampdown",
            "mode": "195",
            "max": "200"
          },
          "id": "11c85e9c.4e9f9b"
        }
      ],
      "label": "inlum_up-outlum_down"
    }, {
      "id": "lb_9d446701.eb74c5",
      "type": "transition",
      "source": "9d446701.eb74c5",
      "target": "9d446701.eb74c5",
      "input": null,
      "output": null,
      "sensors": [{
          "name": "indoor_lum",
          "constraint": "poss",
          "parameters": {
            "mean": 0,
            "sd": 0,
            "constraint": "rampup",
            "min": "650",
            "mode": "700"
          },
          "id": "805a7e49.a9c2ee"
        }, {
          "name": "outdoor_lum",
          "constraint": "poss",
          "parameters": {
            "mean": 0,
            "sd": 0,
            "constraint": "rampup",
            "min": "200",
            "mode": "210"
          },
          "id": "11c85e9c.4e9f9b"
        }
      ],
      "label": "inlum_up-outlum_up"
    }, {
      "id": "005c1b38.c9b027",
      "type": "transition",
      "source": "2d96070d.8a4531",
      "target": "28ce4dc3.2b0d20",
      "sensors": [{
          "name": "indoor_lum",
          "constraint": "poss",
          "parameters": {
            "mean": 0,
            "sd": 0,
            "constraint": "rampup",
            "min": "650",
            "mode": "700"
          },
          "id": "805a7e49.a9c2ee"
        }, {
          "name": "outdoor_lum",
          "constraint": "poss",
          "parameters": {
            "mean": 0,
            "sd": 0,
            "constraint": "rampdown",
            "mode": "195",
            "max": "200"
          },
          "id": "11c85e9c.4e9f9b"
        }, {
          "id": "d7baeda4.297357",
          "name": "duration",
          "parameters": {
            "constraint": "rampdown",
            "mode": "2",
            "max": "3"
          },
          "constraint": "poss"
        }
      ],
      "label": "inlum_up-outlum_down"
    }, {
      "id": "60f5a9c4.cdbf11",
      "type": "transition",
      "source": "28ce4dc3.2b0d20",
      "target": "2d96070d.8a4531",
      "sensors": [{
          "name": "indoor_lum",
          "constraint": "poss",
          "parameters": {
            "mean": 0,
            "sd": 0,
            "constraint": "rampdown",
            "mode": "300",
            "max": "500"
          },
          "id": "805a7e49.a9c2ee"
        }, {
          "id": "d7baeda4.297357",
          "name": "duration",
          "parameters": {
            "constraint": "rampdown",
            "mode": "2",
            "max": "3"
          },
          "constraint": "poss"
        }
      ],
      "label": "inlum_down"
    }, {
      "id": "0f3ff009.1a9b33",
      "type": "transition",
      "source": "28ce4dc3.2b0d20",
      "target": "9d446701.eb74c5",
      "sensors": [{
          "name": "indoor_lum",
          "constraint": "poss",
          "parameters": {
            "mean": 0,
            "sd": 0,
            "constraint": "rampup",
            "min": "650",
            "mode": "700"
          },
          "id": "805a7e49.a9c2ee"
        }, {
          "name": "outdoor_lum",
          "constraint": "poss",
          "parameters": {
            "mean": 0,
            "sd": 0,
            "constraint": "rampup",
            "min": "200",
            "mode": "210"
          },
          "id": "11c85e9c.4e9f9b"
        }, {
          "id": "d7baeda4.297357",
          "name": "duration",
          "parameters": {
            "constraint": "rampdown",
            "mode": "2",
            "max": "3"
          },
          "constraint": "poss"
        }
      ],
      "label": "inlum_up-outlum_up"
    }, {
      "id": "8a439f31.501951",
      "type": "transition",
      "source": "9d446701.eb74c5",
      "target": "28ce4dc3.2b0d20",
      "sensors": [{
          "name": "indoor_lum",
          "constraint": "poss",
          "parameters": {
            "mean": 0,
            "sd": 0,
            "constraint": "rampup",
            "min": "650",
            "mode": "700"
          },
          "id": "805a7e49.a9c2ee"
        }, {
          "name": "outdoor_lum",
          "constraint": "poss",
          "parameters": {
            "mean": 0,
            "sd": 0,
            "constraint": "rampdown",
            "mode": "195",
            "max": "200"
          },
          "id": "11c85e9c.4e9f9b"
        }, {
          "id": "d7baeda4.297357",
          "name": "duration",
          "parameters": {
            "constraint": "rampdown",
            "mode": "2",
            "max": "3"
          },
          "constraint": "poss"
        }
      ],
      "label": "inlum_up-outlum_down"
    }, {
      "id": "cd25b31a.fb2f90",
      "type": "transition",
      "source": "9d446701.eb74c5",
      "target": "2d96070d.8a4531",
      "sensors": [{
          "name": "indoor_lum",
          "constraint": "poss",
          "parameters": {
            "mean": 0,
            "sd": 0,
            "constraint": "rampdown",
            "mode": "300",
            "max": "500"
          },
          "id": "805a7e49.a9c2ee"
        }, {
          "id": "d7baeda4.297357",
          "name": "duration",
          "parameters": {
            "constraint": "rampdown",
            "mode": "2",
            "max": "3"
          },
          "constraint": "poss"
        }
      ],
      "label": "inlum_down"
    }, {
      "id": "9943731f.a98177",
      "type": "transition",
      "source": "2d96070d.8a4531",
      "target": "9d446701.eb74c5",
      "sensors": [{
          "name": "indoor_lum",
          "constraint": "poss",
          "parameters": {
            "mean": 0,
            "sd": 0,
            "constraint": "rampup",
            "min": "650",
            "mode": "700"
          },
          "id": "805a7e49.a9c2ee"
        }, {
          "name": "outdoor_lum",
          "constraint": "poss",
          "parameters": {
            "mean": 0,
            "sd": 0,
            "constraint": "rampup",
            "min": "200",
            "mode": "210"
          },
          "id": "11c85e9c.4e9f9b"
        }, {
          "id": "d7baeda4.297357",
          "name": "duration",
          "parameters": {
            "constraint": "rampdown",
            "mode": "2",
            "max": "3"
          },
          "constraint": "poss"
        }
      ],
      "label": "inlum_up-outlum_up"
    }
  ],
  "extraProps": {
    "sensors": [{
        "id": "d4da0a6c.01076a",
        "name": "power_consumption"
      }, {
        "id": "805a7e49.a9c2ee",
        "name": "indoor_lum"
      }, {
        "id": "11c85e9c.4e9f9b",
        "name": "outdoor_lum"
      }, {
        "id": "d7baeda4.297357",
        "name": "duration"
      }
    ]
  }
}
